\relax 
\providecommand*{\memsetcounter}[2]{}
\providecommand\babel@aux[2]{}
\@nameuse{bbl@beforestart}
\catcode `"\active 
\babel@aux{latin}{}
\babel@aux{latin}{}
\babel@aux{british}{}
\babel@aux{latin}{}
\babel@aux{british}{}
\babel@aux{latin}{}
\babel@aux{british}{}
\babel@aux{latin}{}
\babel@aux{british}{}
\babel@aux{latin}{}
\babel@aux{british}{}
\babel@aux{latin}{}
\babel@aux{british}{}
\babel@aux{latin}{}
\babel@aux{british}{}
\babel@aux{latin}{}
\babel@aux{british}{}
\babel@aux{latin}{}
\babel@aux{british}{}
\babel@aux{latin}{}
\babel@aux{british}{}
\babel@aux{latin}{}
\babel@aux{british}{}
\babel@aux{latin}{}
\babel@aux{british}{}
\babel@aux{latin}{}
\babel@aux{british}{}
\babel@aux{latin}{}
\babel@aux{british}{}
\babel@aux{latin}{}
\babel@aux{british}{}
\babel@aux{latin}{}
\babel@aux{british}{}
\memsetcounter{lastsheet}{4}
\memsetcounter{lastpage}{4}
\gdef \@abspage@last{4}
