%% Generated by lilypond-book
%% Options: [indent=0\mm,line-width=219\pt,staffsize=11]
\include "lilypond-book-preamble.ly"


% ****************************************************************
% Start cut-&-pastable-section
% ****************************************************************

#(ly:set-option 'eps-box-padding 3.000000)

#(set-global-staff-size 11)

\paper {
  indent = 0\mm
  line-width = 219\pt
  % offset the left padding, also add 1mm as lilypond creates cropped
  % images with a little space on the right
  line-width = #(- line-width (* mm  3.000000) (* mm 1))
}

\layout {
  
}




% ****************************************************************
% ly snippet:
% ****************************************************************
\sourcefileline 79

musicOne = \relative {
\partial 4  d'4 g g b g g b a a b8( a) g2
 d4 g g b g g b a a b8( a) g2
}
verseOne = \lyricmode {
		Hail, Queen of the hea -- ven:
		Hail, mist -- ress of earth!
		Hail, Vir -- gin most pure,
		Of im -- ma -- cu -- late birth!
		Clear star of the morn -- ing,
		In beau -- ty en -- shrin'd!
		O La -- dy, make speed
		To the help of man -- kind.
	}
\score {
  <<
    \new Voice = "one" {
      \time 3/4
      \key g \major
      \musicOne
    }
    \new Lyrics \lyricsto "one" {
      \verseOne
    }
  >>
}



% ****************************************************************
% end ly snippet
% ****************************************************************
