%!PS-Adobe-2.0 EPSF-2.0
%%Creator: LilyPond 2.24.2
%%BoundingBox: -9 -36 207 0
%%Orientation: Portrait
%%DocumentSuppliedResources: font C059-Roman
%%DocumentSuppliedResources: font Emmentaler-14
%%EndComments
%%BeginProlog
/lilypond-datadir where {pop} {userdict /lilypond-datadir (/home/veronica/bin/lilypond-2.24.2/share/lilypond/2.24.2) put } ifelse
%%BeginFont: C059-Roman
(/usr/share/fonts/opentype/urw-base35/C059-Roman.otf) (r) file .loadfont
%%EndFont

%%BeginFont: Emmentaler-14
lilypond-datadir (/fonts/otf/emmentaler-14.otf) concatstrings (r) file .loadfont
%%EndFont

%%BeginFont: Emmentaler-14
lilypond-datadir (/fonts/otf/emmentaler-14.otf) concatstrings (r) file .loadfont
%%EndFont

/magfontemmentaler-14mZEBo { /Emmentaler-14 4.9204 output-scale div selectfont } bind def
/lily-output-units 2.834645669291339 def %% millimeter
/staff-line-thickness 0.12816326530612243 def
/line-width 59.31968503937008 def
/paper-size (a4) def
/staff-height 4.0 def
/output-scale 1.230109312301093 def
/page-height 241.44195725534308 def
/page-width 170.71653543307087 def
%%BeginResource: procset (music-drawing-routines.ps) 1 0
%!PS-Adobe-2.0
%
% Functions for direct and embedded PostScript
%
% This file is part of LilyPond, the GNU music typesetter.
%
% Copyright (C) 1998--2022 Han-Wen Nienhuys <hanwen@xs4all.nl>,
%               2013--2019 David Kastrup <dak@gnu.org>
%
% LilyPond is free software: you can redistribute it and/or modify
% it under the terms of the GNU General Public License as published by
% the Free Software Foundation, either version 3 of the License, or
% (at your option) any later version.
%
% LilyPond is distributed in the hope that it will be useful,
% but WITHOUT ANY WARRANTY; without even the implied warranty of
% MERCHANTABILITY or FITNESS FOR A PARTICULAR PURPOSE.  See the
% GNU General Public License for more details.
%
% You should have received a copy of the GNU General Public License
% along with LilyPond.  If not, see <http://www.gnu.org/licenses/>.
%
% Careful with double % as comment prefix.
% Any %%X comment is interpreted as DSC comments.

% TODO: use dicts or prefixes to prevent namespace pollution.

/pdfmark where
{pop} {userdict /pdfmark /cleartomark load put} ifelse


% llx lly urx ury URI
/mark_URI
{
    /uri exch def
    /ury exch def
    /urx exch def
    /lly exch def
    /llx exch def
    [
	/Rect [ llx lly urx ury ]
	
	/Border [ 0 0 0 ]

        /Action
	    <<
		/Subtype /URI
		/URI uri
	    >>
        /Subtype /Link
    /ANN
    pdfmark
}
bind def

% llx lly urx ury page
/mark_page_link
{
    /page exch def
    /ury exch def
    /urx exch def
    /lly exch def
    /llx exch def
    [
        /Rect [ llx lly urx ury ]
        /Border [ 0 0 0 ]
        /Page page
        /Subtype /Link
    /ANN
    pdfmark
}
bind def

% from adobe tech note 5002.
/BeginEPSF { %def
    /b4_Inc_state save def % Save state for cleanup
    /dict_count countdictstack def % Count objects on dict stack
    /op_count count 1 sub def % Count objects on operand stack
    userdict begin % Push userdict on dict stack
    /showpage { } def % Redefine showpage, { } = null proc
    0 setgray 0 setlinecap % Prepare graphics state
    1 setlinewidth 0 setlinejoin
    10 setmiterlimit [ ] 0 setdash newpath
    false setoverprint
} bind def

/EndEPSF { %def
  count op_count sub {pop} repeat % Clean up stacks
  countdictstack dict_count sub {end} repeat
  b4_Inc_state restore
} bind def

/stroke_and_fill? {
    {
	gsave
	    false setstrokeadjust
	    stroke
	grestore
	fill
    }
    {
	stroke
    }
    ifelse
} bind def

/vector_add { % x1 y1 x2 y2 vector_add x1+x2 y1+y2
	exch
	4 1 roll
	add
	3 1 roll
	add
	exch
} bind def

/draw_round_box % width height x y blot
{
    dup 0 lt { pop 0 } if setlinewidth
    matrix currentmatrix 5 1 roll
    currentpoint translate newpath translate
    2 copy dup 0 gt { pop 0 } if exch dup 0 gt { pop 0 } if exch translate
    abs exch abs exch
    currentlinewidth 0 eq
    { % straight corners
	2 copy 2 mul gt
	{ % horizontal
	    0 1 index 2 div moveto
	    setlinewidth
	    0 rlineto
	    0 setlinecap
	    stroke
	}
	{
	    2 copy exch 2 mul gt
	    { % vertical
		1 index 2 div 0 moveto
		exch setlinewidth
		0 exch rlineto
		0 setlinecap
		stroke
	    }
	    {
		0 0 4 2 roll rectfill
	    }
	    ifelse
	}
	ifelse
    }
    { % rounded corners
	2 copy 0 eq exch 0 eq or
	{ % line shape
	    0 0 moveto
	    rlineto
	    1 setlinecap
	    stroke
	    0 setlinecap
	}
	{ % full shape
	    currentstrokeadjust {
		currentlinewidth 2 div
		0 0 2 index 180 270 arc
		2 index 0 2 index 270 360 arc
		3 copy 0 90 arc
		0 2 index 3 -1 roll 90 180 arc
		closepath
		2 copy 2 mul gt
		{ % horizontal
		    2 copy add currentlinewidth add 10 add % large enough
		    0 1 index neg moveto
		    2 index 1 index neg lineto
		    2 index 1 index lineto
		    0 exch lineto closepath
		    gsave clip newpath
		    0 1 index 2 div moveto
		    currentlinewidth add setlinewidth
		    0 rlineto
		    2 setlinecap
		    stroke
		    grestore
		}
		{
		    2 copy exch 2 mul gt
		    { % vertical
			2 copy add currentlinewidth add 10 add % large enough
			dup neg 0 moveto
			dup 0 lineto
			dup 2 index lineto
			neg 1 index lineto closepath
			gsave clip newpath
			1 index 2 div 0 moveto
			exch currentlinewidth add setlinewidth
			0 exch rlineto
			2 setlinecap
			stroke
			grestore
		    }
		    {
			pop pop
			fill
		    }
		    ifelse
		}
		ifelse
		newpath
	    }
	    {
		1 setlinejoin
		0 0 4 2 roll 4 copy rectstroke rectfill
	    }
	    ifelse
	}
	ifelse
    }
    ifelse
    setmatrix
} bind def

/draw_polygon % fill? x(n) y(n) x(n-1) y(n-1) ... x(0) y(0) n blot
{
	setlinewidth %set to blot

	0 setlinecap
	1 setlinejoin

	3 1 roll
	/polygon_x
	currentpoint
	/polygon_y exch def
	def
	rmoveto % x(0) y(0)
	{ polygon_x polygon_y vector_add lineto } repeat % n times
	closepath
	stroke_and_fill?
} bind def

/draw_circle % filled? radius thickness draw_circle
{
	setlinewidth	% f? r
	currentpoint	% f? r x0 y0
	3 2 roll	% f? x0 y0 r
	dup 0 rmoveto
	0 360 arc closepath
	stroke_and_fill?
} bind def

/draw_ellipse % filled? x-radius y-radius thickness draw_ellipse
{
  setlinewidth % f? x-r y-r
  /savematrix matrix currentmatrix def
  scale % f?
  currentpoint
  1 0 rmoveto
  1 0 360  arc closepath
  savematrix setmatrix
  stroke_and_fill?
} bind def

/draw_partial_ellipse % filled connect x-radius y-radius startangle endangle thickness draw_partial_ellipse
% Note that filled is not boolean to permit for different graylevels (ie for trill keys)
{
  gsave
  currentpoint translate
  /thickness exch def
  /endangle exch def
  /startangle exch def
  /y_radius exch def
  /x_radius exch def
  /endrad x_radius y_radius mul
    x_radius x_radius mul
    endangle cos endangle cos mul mul
    y_radius y_radius mul
    endangle sin endangle sin mul mul add sqrt div def
  /endangle endangle sin endrad mul y_radius div
    endangle cos endrad mul x_radius div atan def
  /startrad x_radius y_radius mul
    x_radius x_radius mul
      startangle cos startangle cos mul mul
    y_radius y_radius mul
      startangle sin startangle sin mul mul add sqrt div def
  /startangle startangle sin startrad mul y_radius div
    startangle cos startrad mul x_radius div atan def
  /connect exch def
  /filled exch def
  /savematrix matrix currentmatrix def
  thickness setlinewidth
  x_radius y_radius scale
  startangle cos startangle sin moveto
  0 0 1 startangle
    startangle endangle eq { endangle 360 add } { endangle } ifelse
    arc
  connect {
    startangle cos startangle sin moveto endangle cos endangle sin lineto }
    if
  savematrix setmatrix filled stroke_and_fill?
  grestore
} bind def

/draw_line % dx dy x1 y1 thickness draw_line
{
	setlinewidth % dx dy x1 y1
	1 setlinecap
	rmoveto % dx dy
	rlineto
	stroke
} bind def

/draw_dashed_line % dx dy thickness dashpattern offset draw_dashed_line
{
	1 setlinecap
	setdash % dx dy thickness
	setlinewidth %dx dy
	rlineto
	stroke
	[] 0 setdash % reset dash pattern
} bind def

/print_glyphs % w dx dy glyph print_glyphs
{
	{
		currentpoint %w dx dy glyph x0 y0
		5 2 roll %w x0 y0 dx dy glyph
		3 1 roll %w x0 y0 glyph dx dy
		rmoveto %w x0 y0 glyph
		glyphshow %w x0 y0
		moveto %w
		0 rmoveto
	}repeat
}bind def
%end music-drawing-routines.ps

%%EndResource
%%BeginResource: procset (lilyponddefs.ps) 1 0
%!PS-Adobe-2.0: lilyponddefs.ps
%
% Functions for direct PostScript output
%
% This file is part of LilyPond, the GNU music typesetter.
%
% Copyright (C) 1998-2004 Jan Nieuwenhuizen <janneke@gnu.org>,
%               1999-2006 Han-Wen Nienhuys <hanwen@xs4all.nl>,
%               2005 Werner Lemberg <wl@gnu.org>
%
% LilyPond is free software: you can redistribute it and/or modify
% it under the terms of the GNU General Public License as published by
% the Free Software Foundation, either version 3 of the License, or
% (at your option) any later version.
%
% LilyPond is distributed in the hope that it will be useful,
% but WITHOUT ANY WARRANTY; without even the implied warranty of
% MERCHANTABILITY or FITNESS FOR A PARTICULAR PURPOSE.  See the
% GNU General Public License for more details.
%
% You should have received a copy of the GNU General Public License
% along with LilyPond.  If not, see <http://www.gnu.org/licenses/>.
%

% /setgray { 1 add } bind def

/set-ps-scale-to-lily-scale {
	lily-output-units output-scale mul dup scale
} bind def


/init-paper {
	gsave
	clippath pathbbox newpath
	/paper-height exch def
	/paper-width exch def pop pop pop
	% FIXME
	/top-margin 2 def
	paper-width line-width sub 2 div /left-margin exch def
	grestore
} bind def

/init-lilypond-parameters {
	staff-line-thickness setlinewidth
	staff-height init-paper
} bind def


% end lilyponddefs.ps

%%EndResource
%%EndProlog
%%BeginSetup
init-lilypond-parameters
%%EndSetup

/mark_page_link { pop pop pop pop pop } bind def
gsave set-ps-scale-to-lily-scale
 33.0047 -4.2796 moveto
0.2435 4.0000 0.0000 -2.0000 0.0000 draw_round_box
 46.1885 -4.2796 moveto
0.2435 4.0000 0.0000 -2.0000 0.0000 draw_round_box
 59.0762 -4.2796 moveto
0.2435 4.0000 0.0000 -2.0000 0.0000 draw_round_box
 18.4302 -4.2796 moveto
0.2435 4.0000 0.0000 -2.0000 0.0000 draw_round_box
 0.0000 -6.2796 moveto
59.1915 0 0.0641 0 0.1282 draw_line
 0.0000 -5.2796 moveto
59.1915 0 0.0641 0 0.1282 draw_line
 0.0000 -4.2796 moveto
59.1915 0 0.0641 0 0.1282 draw_line
 0.0000 -3.2796 moveto
59.1915 0 0.0641 0 0.1282 draw_line
 0.0000 -2.2796 moveto
59.1915 0 0.0641 0 0.1282 draw_line
 46.3155 -9.7796 moveto
 46.3155 -9.7796 moveto
/C059-Roman 3.03808594 output-scale div selectfont
1.3657 0.0000 0.0000 /a
2.1949 0.0000 0.0000 /m
2 print_glyphs
 48.6616 -4.2796 moveto
0.0523 3.2239 -0.0262 -0.2810 0.1143 draw_round_box
 50.8759 -4.7796 moveto
magfontemmentaler-14mZEBo /noteheads.s2 glyphshow
 50.2080 -9.7796 moveto
 50.2080 -9.7796 moveto
/C059-Roman 3.03808594 output-scale div selectfont
1.5121 0.0000 0.0000 /u
1.1219 0.0000 0.0000 /c
2 print_glyphs
 55.4365 -1.1037 moveto
true 2.4115 -0.1690 2.4115 -0.5347 0.0571 -0.1829 0.0571 0.1829 3 0.1143 draw_polygon
 39.3650 -5.2796 moveto
magfontemmentaler-14mZEBo /noteheads.s2 glyphshow
 38.6483 -9.7796 moveto
 38.6483 -9.7796 moveto
/C059-Roman 3.03808594 output-scale div selectfont
0.8292 0.0000 0.0000 /f
1.9023 0.0000 0.0000 /O
2 print_glyphs
 40.5798 -4.2796 moveto
0.0523 3.2239 -0.0262 -0.7810 0.1143 draw_round_box
 47.4468 -4.7796 moveto
magfontemmentaler-14mZEBo /noteheads.s2 glyphshow
 42.8907 -4.2796 moveto
magfontemmentaler-14mZEBo /noteheads.s2 glyphshow
 42.0521 -9.7796 moveto
 42.0521 -9.7796 moveto
/C059-Roman 3.03808594 output-scale div selectfont
2.1949 0.0000 0.0000 /m
0.7804 0.0000 0.0000 /i
2 print_glyphs
 42.9740 -4.2796 moveto
0.0523 3.0572 -0.0262 -3.2762 0.1143 draw_round_box
 45.3415 -9.7796 moveto
0.5575 0.0641 0.0513 0.4713 0.1025 draw_round_box
 49.8921 -9.7796 moveto
0.1975 0.0641 0.0513 0.4713 0.1025 draw_round_box
 53.2434 -9.7796 moveto
0.5575 0.0641 0.0513 0.4713 0.1025 draw_round_box
 54.3050 -4.2796 moveto
gsave currentpoint translate
1 setlinecap 1 setlinejoin 0.10253061 setlinewidth
0.58400693 -1.18046032 moveto 1.11558136 -1.79915591 2.16725499 -1.95904872 2.88608527 -1.53046032 curveto 2.88608527 -1.53046032 lineto 2.19037194 -1.80700007 1.13869831 -1.64710726 0.58400693 -1.18046032 curveto closepath gsave stroke grestore fill grestore
 54.3050 -4.2796 moveto
magfontemmentaler-14mZEBo /noteheads.s2 glyphshow
 54.3050 -9.7796 moveto
 54.3050 -9.7796 moveto
/C059-Roman 3.03808594 output-scale div selectfont
1.2194 0.0000 0.0000 /e
0.9755 0.0000 0.0000 /t
1.3170 0.0000 0.0000 /a
0.7804 0.0000 0.0000 /l
4 print_glyphs
 55.5198 -4.2796 moveto
0.0523 2.8879 -0.0262 0.2190 0.1143 draw_round_box
 52.0907 -4.2796 moveto
0.0523 3.2239 -0.0262 -0.2810 0.1143 draw_round_box
 56.6071 -4.7796 moveto
magfontemmentaler-14mZEBo /noteheads.s2 glyphshow
 57.8219 -4.2796 moveto
0.0523 3.0599 -0.0262 -0.2810 0.1143 draw_round_box
 5.1303 -9.7796 moveto
 5.1303 -9.7796 moveto
/C059-Roman 3.03808594 output-scale div selectfont
0.7316 0.0000 0.0000 /exclam
1.5121 0.0000 0.0000 /h
0.9755 0.0000 0.0000 /t
1.1219 0.0000 0.0000 /r
1.3657 0.0000 0.0000 /a
1.2194 0.0000 0.0000 /e
6 print_glyphs
 9.2036 -4.2796 moveto
0.0523 3.1492 -0.0262 -0.7063 0.1143 draw_round_box
 14.6621 -6.7796 moveto
magfontemmentaler-14mZEBo /noteheads.s2 glyphshow
 12.5065 -9.7796 moveto
 12.5065 -9.7796 moveto
/C059-Roman 3.03808594 output-scale div selectfont
0.6829 0.0000 0.0000 /comma
0.7316 0.0000 0.0000 /l
0.7804 0.0000 0.0000 /i
1.3657 0.0000 0.0000 /a
2.0486 0.0000 0.0000 /H
5 print_glyphs
 15.8769 -4.2796 moveto
0.0523 3.2239 -0.0262 -2.2810 0.1143 draw_round_box
 7.9000 -5.2796 moveto
magfontemmentaler-14mZEBo /noteheads.s1 glyphshow
 19.7215 -5.2796 moveto
magfontemmentaler-14mZEBo /noteheads.s2 glyphshow
 18.5658 -9.7796 moveto
 18.5658 -9.7796 moveto
/C059-Roman 3.03808594 output-scale div selectfont
1.0731 0.0000 0.0000 /r
0.7804 0.0000 0.0000 /i
1.7559 0.0000 0.0000 /V
3 print_glyphs
 20.9363 -4.2796 moveto
0.0523 3.2239 -0.0262 -0.7810 0.1143 draw_round_box
 4.3000 -2.2796 moveto
magfontemmentaler-14mZEBo /accidentals.sharp glyphshow
 0.8000 -5.2796 moveto
magfontemmentaler-14mZEBo /clefs.G glyphshow
 -0.9755 -1.2296 moveto
 -0.9755 -1.2296 moveto
/C059-Roman 2.14843750 output-scale div selectfont
0.9755 0.0000 0.0000 /four
1 print_glyphs
 28.5248 -4.2796 moveto
0.0523 3.0572 -0.0262 -3.2762 0.1143 draw_round_box
 26.3347 -9.7796 moveto
 26.3347 -9.7796 moveto
/C059-Roman 3.03808594 output-scale div selectfont
0.9755 0.0000 0.0000 /t
1.1219 0.0000 0.0000 /s
1.2194 0.0000 0.0000 /o
2.1949 0.0000 0.0000 /m
4 print_glyphs
 34.5983 -5.2796 moveto
magfontemmentaler-14mZEBo /noteheads.s2 glyphshow
 28.4415 -4.2796 moveto
magfontemmentaler-14mZEBo /noteheads.s2 glyphshow
 32.2964 -9.7796 moveto
 32.2964 -9.7796 moveto
/C059-Roman 3.03808594 output-scale div selectfont
0.6829 0.0000 0.0000 /comma
1.2194 0.0000 0.0000 /e
1.0731 0.0000 0.0000 /r
1.5121 0.0000 0.0000 /u
1.4145 0.0000 0.0000 /p
5 print_glyphs
 24.6457 -4.2796 moveto
0.0523 3.2239 -0.0262 -0.7810 0.1143 draw_round_box
 22.2752 -9.7796 moveto
 22.2752 -9.7796 moveto
/C059-Roman 3.03808594 output-scale div selectfont
1.5121 0.0000 0.0000 /n
0.7804 0.0000 0.0000 /i
1.3170 0.0000 0.0000 /g
3 print_glyphs
 35.8131 -4.2796 moveto
0.0523 3.2239 -0.0262 -0.7810 0.1143 draw_round_box
 23.4309 -5.2796 moveto
magfontemmentaler-14mZEBo /noteheads.s2 glyphshow
stroke grestore
%%Trailer
%%EOF
