%% Generated by lilypond-book
%% Options: [indent=0\mm,line-width=550\pt,staffsize=12]
\include "lilypond-book-preamble.ly"


% ****************************************************************
% Start cut-&-pastable-section
% ****************************************************************

#(ly:set-option 'eps-box-padding 3.000000)

#(set-global-staff-size 12)

\paper {
  indent = 0\mm
  line-width = 550\pt
  % offset the left padding, also add 1mm as lilypond creates cropped
  % images with a little space on the right
  line-width = #(- line-width (* mm  3.000000) (* mm 1))
}

\layout {
  
}




% ****************************************************************
% ly snippet:
% ****************************************************************
\sourcefileline 1033

musicOne = \relative {
\partial 4  d'4 g g a b b d4 g, a fis g2
a4 b a g fis fis g4 a g8( fis) e4 d2
fis4 g a b g e c' b a g d'2
d,4 e fis g a d, b' e, a fis g2
}
verseOne = \lyricmode {
		Hail, Queen of the hea -- ven:
		Hail, mist -- ress of earth!
		Hail, Vir -- gin most pure,
		Of im -- ma -- cu -- late birth!
		Clear star of the morn -- ing,
		In beau -- ty en -- shrin'd!
		O La -- dy, make speed
		To the help of man -- kind.
	}
\score {
  <<
    \new Voice = "one" {
      \time 3/4
      \key g \major
      \musicOne
    }
    \new Lyrics \lyricsto "one" {
      \verseOne
    }
  >>
}



% ****************************************************************
% end ly snippet
% ****************************************************************
