%% Generated by lilypond-book
%% Options: [indent=0\mm,line-width=550\pt]
\include "lilypond-book-preamble.ly"


% ****************************************************************
% Start cut-&-pastable-section
% ****************************************************************

#(ly:set-option 'eps-box-padding 3.000000)



\paper {
  indent = 0\mm
  line-width = 550\pt
  % offset the left padding, also add 1mm as lilypond creates cropped
  % images with a little space on the right
  line-width = #(- line-width (* mm  3.000000) (* mm 1))
}

\layout {
  
}




% ****************************************************************
% ly snippet:
% ****************************************************************
\sourcefileline 995
musicOne = \relative {
  c''4 b8. a16 g4. f8 e4 d c2
}
verseOne = \lyricmode {
  Joy to the world, the Lord is come.
}
\score {
  <<
    \new Voice = "one" {
      \time 2/4
      \musicOne
    }
    \new Lyrics \lyricsto "one" {
      \verseOne
    }
  >>
}




% ****************************************************************
% end ly snippet
% ****************************************************************
